C:\repositories\Buzzer\DarwinDigital.Buzzer
--output-path=obj\Release\netcoreapp2.0\
--application-name=DarwinDigital.Buzzer
--content-root=C:\repositories\Buzzer\DarwinDigital.Buzzer
--file=C:\repositories\Buzzer\DarwinDigital.Buzzer\Views\Account\AccessDenied.cshtml
--file=C:\repositories\Buzzer\DarwinDigital.Buzzer\Views\Account\ConfirmEmail.cshtml
--file=C:\repositories\Buzzer\DarwinDigital.Buzzer\Views\Account\ExternalLogin.cshtml
--file=C:\repositories\Buzzer\DarwinDigital.Buzzer\Views\Account\ForgotPassword.cshtml
--file=C:\repositories\Buzzer\DarwinDigital.Buzzer\Views\Account\ForgotPasswordConfirmation.cshtml
--file=C:\repositories\Buzzer\DarwinDigital.Buzzer\Views\Account\Lockout.cshtml
--file=C:\repositories\Buzzer\DarwinDigital.Buzzer\Views\Account\Login.cshtml
--file=C:\repositories\Buzzer\DarwinDigital.Buzzer\Views\Account\LoginWith2fa.cshtml
--file=C:\repositories\Buzzer\DarwinDigital.Buzzer\Views\Account\LoginWithRecoveryCode.cshtml
--file=C:\repositories\Buzzer\DarwinDigital.Buzzer\Views\Account\Register.cshtml
--file=C:\repositories\Buzzer\DarwinDigital.Buzzer\Views\Account\ResetPassword.cshtml
--file=C:\repositories\Buzzer\DarwinDigital.Buzzer\Views\Account\ResetPasswordConfirmation.cshtml
--file=C:\repositories\Buzzer\DarwinDigital.Buzzer\Views\Account\SignedOut.cshtml
--file=C:\repositories\Buzzer\DarwinDigital.Buzzer\Views\Home\Index.cshtml
--file=C:\repositories\Buzzer\DarwinDigital.Buzzer\Views\Manage\ChangePassword.cshtml
--file=C:\repositories\Buzzer\DarwinDigital.Buzzer\Views\Manage\ChangeSettings.cshtml
--file=C:\repositories\Buzzer\DarwinDigital.Buzzer\Views\Manage\Disable2fa.cshtml
--file=C:\repositories\Buzzer\DarwinDigital.Buzzer\Views\Manage\EnableAuthenticator.cshtml
--file=C:\repositories\Buzzer\DarwinDigital.Buzzer\Views\Manage\ExternalLogins.cshtml
--file=C:\repositories\Buzzer\DarwinDigital.Buzzer\Views\Manage\GenerateRecoveryCodes.cshtml
--file=C:\repositories\Buzzer\DarwinDigital.Buzzer\Views\Manage\Index.cshtml
--file=C:\repositories\Buzzer\DarwinDigital.Buzzer\Views\Manage\ResetAuthenticator.cshtml
--file=C:\repositories\Buzzer\DarwinDigital.Buzzer\Views\Manage\SetPassword.cshtml
--file=C:\repositories\Buzzer\DarwinDigital.Buzzer\Views\Manage\ShowRecoveryCodes.cshtml
--file=C:\repositories\Buzzer\DarwinDigital.Buzzer\Views\Manage\TwoFactorAuthentication.cshtml
--file=C:\repositories\Buzzer\DarwinDigital.Buzzer\Views\Manage\_Layout.cshtml
--file=C:\repositories\Buzzer\DarwinDigital.Buzzer\Views\Manage\_ManageNav.cshtml
--file=C:\repositories\Buzzer\DarwinDigital.Buzzer\Views\Manage\_StatusMessage.cshtml
--file=C:\repositories\Buzzer\DarwinDigital.Buzzer\Views\Manage\_ViewImports.cshtml
--file=C:\repositories\Buzzer\DarwinDigital.Buzzer\Views\Shared\ClientScript\_OpeningHoursError.cshtml
--file=C:\repositories\Buzzer\DarwinDigital.Buzzer\Views\Shared\ClientScript\_Script.cshtml
--file=C:\repositories\Buzzer\DarwinDigital.Buzzer\Views\Shared\ClientScript\_ScriptError.cshtml
--file=C:\repositories\Buzzer\DarwinDigital.Buzzer\Views\Shared\Error.cshtml
--file=C:\repositories\Buzzer\DarwinDigital.Buzzer\Views\Shared\_Header.cshtml
--file=C:\repositories\Buzzer\DarwinDigital.Buzzer\Views\Shared\_Layout.cshtml
--file=C:\repositories\Buzzer\DarwinDigital.Buzzer\Views\Shared\_LoginPartial.cshtml
--file=C:\repositories\Buzzer\DarwinDigital.Buzzer\Views\Shared\_ValidationScriptsPartial.cshtml
--file=C:\repositories\Buzzer\DarwinDigital.Buzzer\Views\_ViewImports.cshtml
--file=C:\repositories\Buzzer\DarwinDigital.Buzzer\Views\_ViewStart.cshtml
